%YAML 1.1
%TAG !u! tag:unity3d.com,2011:
--- !u!114 &11400000
MonoBehaviour:
  m_ObjectHideFlags: 0
  m_CorrespondingSourceObject: {fileID: 0}
  m_PrefabInstance: {fileID: 0}
  m_PrefabAsset: {fileID: 0}
  m_GameObject: {fileID: 0}
  m_Enabled: 1
  m_EditorHideFlags: 0
  m_Script: {fileID: 11500000, guid: 6d78e35d85abfd74395829407c8771ad, type: 3}
  m_Name: Player_2
  m_EditorClassIdentifier: 
  model: {fileID: 1946970332979032, guid: 6647bc14b7f253f4aa7ed042ccbd8304, type: 3}
  s_name: Grey
  speed: 6
  damage: 15
  health: 150
  TimeBetweenShots: 0.1
  price_SC: 1500
  price_HC: 1
